This is BibTeX, Version 0.99d (TeX Live 2013/Debian)
Capacity: max_strings=35307, hash_size=35307, hash_prime=30011
The top-level auxiliary file: mocz_philip_cs382_report.aux
The style file: mn2e.bst
Database file #1: mybib.bib
Warning--empty journal in Mertens2014
You've used 10 entries,
            2987 wiz_defined-function locations,
            723 strings with 6514 characters,
and the built_in function-call counts, 4850 in all, are:
= -- 395
> -- 408
< -- 0
+ -- 138
- -- 132
* -- 400
:= -- 946
add.period$ -- 1
call.type$ -- 10
change.case$ -- 83
chr.to.int$ -- 10
cite$ -- 11
duplicate$ -- 164
empty$ -- 254
format.name$ -- 148
if$ -- 931
int.to.chr$ -- 1
int.to.str$ -- 1
missing$ -- 8
newline$ -- 34
num.names$ -- 40
pop$ -- 71
preamble$ -- 1
purify$ -- 80
quote$ -- 0
skip$ -- 155
stack$ -- 0
substring$ -- 184
swap$ -- 10
text.length$ -- 0
text.prefix$ -- 0
top$ -- 0
type$ -- 90
warning$ -- 1
while$ -- 43
width$ -- 0
write$ -- 100
(There was 1 warning)
