\relax 
\providecommand\hyper@newdestlabel[2]{}
\providecommand\HyperFirstAtBeginDocument{\AtBeginDocument}
\HyperFirstAtBeginDocument{\ifx\hyper@anchor\@undefined
\global\let\oldcontentsline\contentsline
\gdef\contentsline#1#2#3#4{\oldcontentsline{#1}{#2}{#3}}
\global\let\oldnewlabel\newlabel
\gdef\newlabel#1#2{\newlabelxx{#1}#2}
\gdef\newlabelxx#1#2#3#4#5#6{\oldnewlabel{#1}{{#2}{#3}}}
\AtEndDocument{\ifx\hyper@anchor\@undefined
\let\contentsline\oldcontentsline
\let\newlabel\oldnewlabel
\fi}
\fi}
\global\let\hyper@last\relax 
\gdef\HyperFirstAtBeginDocument#1{#1}
\providecommand\HyField@AuxAddToFields[1]{}
\providecommand\HyField@AuxAddToCoFields[2]{}
\bibstyle{mn2e}
\citation{1981MNRAS.194..809L,2009ApJ...699.1092H}
\citation{Clark2014}
\citation{Mertens2014}
\citation{Arbelaez2010}
\newlabel{firstpage}{{}{1}{}{Doc-Start}{}}
\@writefile{toc}{\contentsline {section}{\numberline {1}Introduction}{1}{section.1}}
\newlabel{sec:intro}{{1}{1}{Introduction}{section.1}{}}
\@writefile{brf}{\backcite{1981MNRAS.194..809L}{{1}{1}{section.1}}}
\@writefile{brf}{\backcite{2009ApJ...699.1092H}{{1}{1}{section.1}}}
\@writefile{brf}{\backcite{Clark2014}{{1}{1}{section.1}}}
\@writefile{brf}{\backcite{Mertens2014}{{1}{1}{section.1}}}
\@writefile{brf}{\backcite{Arbelaez2010}{{1}{1}{section.1}}}
\citation{Clark2014}
\citation{2003ApJS..149..365J}
\citation{Peek2011}
\citation{Clark2014}
\citation{Clark2014}
\citation{Hough1962}
\citation{Clark2014}
\@writefile{brf}{\backcite{Clark2014}{{2}{1}{section.1}}}
\@writefile{brf}{\backcite{2003ApJS..149..365J}{{2}{1}{section.1}}}
\@writefile{brf}{\backcite{Peek2011}{{2}{1}{section.1}}}
\@writefile{toc}{\contentsline {section}{\numberline {2}Data}{2}{section.2}}
\newlabel{sec:data}{{2}{2}{Data}{section.2}{}}
\@writefile{lof}{\contentsline {figure}{\numberline {1}{\ignorespaces This color image from the GALFA-HI survey (the dataset we use) is constructed from 3 velocity channels: $[-1.1,1.1]\nobreakspace  {}{\rm  km}\nobreakspace  {}{\rm  s}^{-1}$ (green; channel A), $[1.1,2.2]\nobreakspace  {}{\rm  km}\nobreakspace  {}{\rm  s}^{-1}$ (red; channel B), and $[-2.2,-1.1]\nobreakspace  {}{\rm  km}\nobreakspace  {}{\rm  s}^{-1}$ (blue; channel C), where the $(-)$ sign gas is moving towards the observer. The image is $512^2$ pixels, where the pixels represent $1$ arcminute right ascension (RA) and declination (dec) angular coordinates in the sky. The image is centered on RA$=60$, dec$=+26.35$.}}{2}{figure.1}}
\newlabel{fig:data}{{1}{2}{This color image from the GALFA-HI survey (the dataset we use) is constructed from 3 velocity channels: $[-1.1,1.1]~{\rm km}~{\rm s}^{-1}$ (green; channel A), $[1.1,2.2]~{\rm km}~{\rm s}^{-1}$ (red; channel B), and $[-2.2,-1.1]~{\rm km}~{\rm s}^{-1}$ (blue; channel C), where the $(-)$ sign gas is moving towards the observer. The image is $512^2$ pixels, where the pixels represent $1$ arcminute right ascension (RA) and declination (dec) angular coordinates in the sky. The image is centered on RA$=60$, dec$=+26.35$}{figure.1}{}}
\@writefile{toc}{\contentsline {section}{\numberline {3}Methods}{2}{section.3}}
\newlabel{sec:methods}{{3}{2}{Methods}{section.3}{}}
\@writefile{toc}{\contentsline {subsection}{\numberline {3.1}Rolling Hough Transform}{2}{subsection.3.1}}
\newlabel{sec:RHT}{{3.1}{2}{Rolling Hough Transform}{subsection.3.1}{}}
\@writefile{brf}{\backcite{Hough1962}{{2}{3.1}{subsection.3.1}}}
\@writefile{brf}{\backcite{Clark2014}{{2}{3.1}{subsection.3.1}}}
\@writefile{lof}{\contentsline {figure}{\numberline {2}{\ignorespaces A summary of the RHT algorithm from \cite {Clark2014}. First, an unsharp mask of the image is created. It is then subtracted from the original image to reveal linear features. The features are transformed into a bitwise map using a threshold value. The RHT is performed at each pixel of the image: the strength of having a line through the pixel with angle $\theta $ is calculated. Only strengths above some threshold value are kept.}}{3}{figure.2}}
\@writefile{brf}{\backcite{Clark2014}{{3}{2}{figure.2}}}
\newlabel{fig:rhtmethod}{{2}{3}{A summary of the RHT algorithm from \protect \cite {Clark2014}. First, an unsharp mask of the image is created. It is then subtracted from the original image to reveal linear features. The features are transformed into a bitwise map using a threshold value. The RHT is performed at each pixel of the image: the strength of having a line through the pixel with angle $\theta $ is calculated. Only strengths above some threshold value are kept}{figure.2}{}}
\@writefile{lof}{\contentsline {figure}{\numberline {3}{\ignorespaces Wavelet coefficient representation of an image. The left panel shows the wavelet coefficients organized in Mallet's ordering. The bottom right quadrant, top right quadrant, and bottom left quadrant represent the coefficient for the diagonal, vertical, and horizontal wavelet basis functions respectively at the smallest spatial scale ($J_{\rm  max}$). The coefficients for smaller larger spatial scales (smaller $j$ levels) are stored recursively in the upper left quadrant. The right panel illustrates the three types of biorthogonal basis functions used (diagonal, vertical, horizontal) for the wavelet transform.}}{3}{figure.3}}
\newlabel{fig:wc}{{3}{3}{Wavelet coefficient representation of an image. The left panel shows the wavelet coefficients organized in Mallet's ordering. The bottom right quadrant, top right quadrant, and bottom left quadrant represent the coefficient for the diagonal, vertical, and horizontal wavelet basis functions respectively at the smallest spatial scale ($J_{\rm max}$). The coefficients for smaller larger spatial scales (smaller $j$ levels) are stored recursively in the upper left quadrant. The right panel illustrates the three types of biorthogonal basis functions used (diagonal, vertical, horizontal) for the wavelet transform}{figure.3}{}}
\citation{Mertens2014}
\citation{Mertens2014}
\citation{Beucher1992}
\citation{Arbelaez2010}
\citation{Arbelaez2010}
\@writefile{toc}{\contentsline {subsection}{\numberline {3.2}Wavelet-based Image Segmentation and Evaluation}{4}{subsection.3.2}}
\newlabel{sec:WISE}{{3.2}{4}{Wavelet-based Image Segmentation and Evaluation}{subsection.3.2}{}}
\@writefile{brf}{\backcite{Mertens2014}{{4}{3.2}{subsection.3.2}}}
\@writefile{brf}{\backcite{Mertens2014}{{4}{3.2}{subsection.3.2}}}
\@writefile{brf}{\backcite{Beucher1992}{{4}{(iii)}{Item.3}}}
\@writefile{toc}{\contentsline {subsection}{\numberline {3.3}BSR segmentation}{4}{subsection.3.3}}
\newlabel{sec:BSR}{{3.3}{4}{BSR segmentation}{subsection.3.3}{}}
\@writefile{brf}{\backcite{Arbelaez2010}{{4}{3.3}{subsection.3.3}}}
\@writefile{brf}{\backcite{Arbelaez2010}{{4}{3.3}{subsection.3.3}}}
\@writefile{toc}{\contentsline {subsubsection}{\numberline {3.3.1}Retraining the BSR segmentation algorithm}{4}{subsubsection.3.3.1}}
\@writefile{lof}{\contentsline {figure}{\numberline {4}{\ignorespaces The unsharp mask used in the RHT analysis.}}{5}{figure.4}}
\newlabel{fig:unsharp}{{4}{5}{The unsharp mask used in the RHT analysis}{figure.4}{}}
\@writefile{lof}{\contentsline {figure}{\numberline {5}{\ignorespaces The difference map of the original image and the unsharp mask in the RHT analysis.}}{5}{figure.5}}
\newlabel{fig:diff}{{5}{5}{The difference map of the original image and the unsharp mask in the RHT analysis}{figure.5}{}}
\@writefile{toc}{\contentsline {section}{\numberline {4}Results}{5}{section.4}}
\newlabel{sec:results}{{4}{5}{Results}{section.4}{}}
\@writefile{lof}{\contentsline {figure}{\numberline {6}{\ignorespaces Linear coherent structures identified in the data by the RHT. Plotted is the RHT back projection. The three color channels represent the RHT of the 3 velocity channels of the dataset. Green is gas in the rest frame, red is gas moving away from the observer, and blue is gas moving towards the observer.}}{5}{figure.6}}
\newlabel{fig:rht}{{6}{5}{Linear coherent structures identified in the data by the RHT. Plotted is the RHT back projection. The three color channels represent the RHT of the 3 velocity channels of the dataset. Green is gas in the rest frame, red is gas moving away from the observer, and blue is gas moving towards the observer}{figure.6}{}}
\@writefile{lof}{\contentsline {figure}{\numberline {8}{\ignorespaces WISE segmentation of the image into multiscale blobs using the wavelet transform. The RGB color channels of the image represent the 3 velocity channels of the dataset. Green=rest frame, red=moving away from observer, blue=moving towards observer. The circles represent the feature points of each identified segment.}}{6}{figure.8}}
\newlabel{fig:wise}{{8}{6}{WISE segmentation of the image into multiscale blobs using the wavelet transform. The RGB color channels of the image represent the 3 velocity channels of the dataset. Green=rest frame, red=moving away from observer, blue=moving towards observer. The circles represent the feature points of each identified segment}{figure.8}{}}
\@writefile{lof}{\contentsline {figure}{\numberline {11}{\ignorespaces Result of the BSR segmentation algorithm for one of the velocity channels. The regions identified correspond to different shocked regions in this turbulent supersonic ISM environment.}}{6}{figure.11}}
\newlabel{fig:RHTvsBSR}{{11}{6}{Result of the BSR segmentation algorithm for one of the velocity channels. The regions identified correspond to different shocked regions in this turbulent supersonic ISM environment}{figure.11}{}}
\@writefile{toc}{\contentsline {section}{\numberline {5}Analysis}{6}{section.5}}
\newlabel{sec:analysis}{{5}{6}{Analysis}{section.5}{}}
\@writefile{toc}{\contentsline {section}{\numberline {6}Conclusion}{6}{section.6}}
\newlabel{sec:conclusion}{{6}{6}{Conclusion}{section.6}{}}
\citation{2013Sci...341.1365S}
\@writefile{lof}{\contentsline {figure}{\numberline {7}{\ignorespaces Two different visualizations of the RHT. The left shows the RHT linear features (back projections) subtracted from the original image (only 1 velocity channel is shown). The right shows just the the direction (not strength) of the linear features (yellow is horizontal, pink is vertical)}}{7}{figure.7}}
\newlabel{fig:viz}{{7}{7}{Two different visualizations of the RHT. The left shows the RHT linear features (back projections) subtracted from the original image (only 1 velocity channel is shown). The right shows just the the direction (not strength) of the linear features (yellow is horizontal, pink is vertical)}{figure.7}{}}
\@writefile{lof}{\contentsline {figure}{\numberline {9}{\ignorespaces Results of the BSR segmentation algorithm. The method identifies hierarchical boundaries (left). The intensity of the colors represent the strength assigned to the boundary. Only boundaries above a certain threshold are kept (right). Again, the RGB color channels of the image represent the 3 velocity channels of the dataset. Green=rest frame, red=moving away from observer, blue=moving towards observer.}}{7}{figure.9}}
\newlabel{fig:bsr}{{9}{7}{Results of the BSR segmentation algorithm. The method identifies hierarchical boundaries (left). The intensity of the colors represent the strength assigned to the boundary. Only boundaries above a certain threshold are kept (right). Again, the RGB color channels of the image represent the 3 velocity channels of the dataset. Green=rest frame, red=moving away from observer, blue=moving towards observer}{figure.9}{}}
\@writefile{lof}{\contentsline {figure}{\numberline {10}{\ignorespaces The original (single-channel) image (top left), the significant blob-like regions identified by the WISE decomposition at level $j=3$ (top right), and the RHT linear features in the original image (bottom left) and selected blob-like regions (bottom right). Only one of the velocity channels is shown.}}{8}{figure.10}}
\newlabel{fig:RHTvsWISE}{{10}{8}{The original (single-channel) image (top left), the significant blob-like regions identified by the WISE decomposition at level $j=3$ (top right), and the RHT linear features in the original image (bottom left) and selected blob-like regions (bottom right). Only one of the velocity channels is shown}{figure.10}{}}
\@writefile{brf}{\backcite{2013Sci...341.1365S}{{8}{6}{section.6}}}
\bibdata{mybib}
\bibcite{Arbelaez2010}{{1}{2010}{{Arbeláez {et~al}\unhbox \voidb@x \hbox {.}}}{{Arbeláez, Maire, Fowlkes, \& Malik}}}
\bibcite{Beucher1992}{{2}{1992}{{Beucher \& Meyer}}{{}}}
\bibcite{Clark2014}{{3}{2014}{{Clark, Peek \& Putman}}{{Clark, Peek, \& Putman}}}
\bibcite{2009ApJ...699.1092H}{{4}{2009}{{{Heyer} {et~al}\unhbox \voidb@x \hbox {.}}}{{{Heyer}, {Krawczyk}, {Duval}, \& {Jackson}}}}
\bibcite{Hough1962}{{5}{1962}{{Hough}}{{}}}
\bibcite{2003ApJS..149..365J}{{6}{2003}{{{Jackson}, {Werner} \& {Gautier}}}{{{Jackson}, {Werner}, \& {Gautier}}}}
\bibcite{1981MNRAS.194..809L}{{7}{1981}{{Larson}}{{}}}
\bibcite{Mertens2014}{{8}{2014}{{Mertens \& Lobanov}}{{}}}
\bibcite{Peek2011}{{9}{2011}{{{Peek} {et~al}\unhbox \voidb@x \hbox {.}}}{{{Peek}, {Heiles}, {Douglas}, {Lee}, {Grcevich}, {Stanimirovi{\'c}}, {Putman}, {Korpela}, {Gibson}, {Begum}, {Saul}, {Robishaw}, \& {Kr{\v c}o}}}}
\bibcite{2013Sci...341.1365S}{{10}{2013}{{{Sanders} {et~al}\unhbox \voidb@x \hbox {.}}}{{{Sanders}, {Fabian}, {Churazov}, {Schekochihin}, {Simionescu}, {Walker}, \& {Werner}}}}
\@writefile{lof}{\contentsline {figure}{\numberline {12}{\ignorespaces Strength of linear structures (identified via RHT) as a function of the scale size of blobs of scale $j$ identified by WISE in each of the 3 velocity channels. The strength increases at smaller and smaller spatial scales. For comparison, the average magnetic fields (with errorbars) in the blob-like regions identified by WISE but given a random shift is shown. These randomly selected regions do not show this same trend.}}{9}{figure.12}}
\newlabel{fig:a6}{{12}{9}{Strength of linear structures (identified via RHT) as a function of the scale size of blobs of scale $j$ identified by WISE in each of the 3 velocity channels. The strength increases at smaller and smaller spatial scales. For comparison, the average magnetic fields (with errorbars) in the blob-like regions identified by WISE but given a random shift is shown. These randomly selected regions do not show this same trend}{figure.12}{}}
\@writefile{lof}{\contentsline {figure}{\numberline {13}{\ignorespaces Strength of linear structures (identified via RHT) as a function of the filling factor of linear structures in regions of shock gas identified by the BSR segmentation algorithm. The average strengths increase with volume filling factor. Again, the different colors represent the different velocity channels.}}{9}{figure.13}}
\newlabel{fig:a9}{{13}{9}{Strength of linear structures (identified via RHT) as a function of the filling factor of linear structures in regions of shock gas identified by the BSR segmentation algorithm. The average strengths increase with volume filling factor. Again, the different colors represent the different velocity channels}{figure.13}{}}
\newlabel{lastpage}{{6}{9}{Acknowledgements}{section*.2}{}}
