\relax 
\providecommand\hyper@newdestlabel[2]{}
\providecommand\HyperFirstAtBeginDocument{\AtBeginDocument}
\HyperFirstAtBeginDocument{\ifx\hyper@anchor\@undefined
\global\let\oldcontentsline\contentsline
\gdef\contentsline#1#2#3#4{\oldcontentsline{#1}{#2}{#3}}
\global\let\oldnewlabel\newlabel
\gdef\newlabel#1#2{\newlabelxx{#1}#2}
\gdef\newlabelxx#1#2#3#4#5#6{\oldnewlabel{#1}{{#2}{#3}}}
\AtEndDocument{\ifx\hyper@anchor\@undefined
\let\contentsline\oldcontentsline
\let\newlabel\oldnewlabel
\fi}
\fi}
\global\let\hyper@last\relax 
\gdef\HyperFirstAtBeginDocument#1{#1}
\providecommand\HyField@AuxAddToFields[1]{}
\providecommand\HyField@AuxAddToCoFields[2]{}
\bibstyle{plainnat}
\citation{Clark2014}
\citation{Mertens2014}
\citation{Arbelaez2010}
\bibdata{mybib}
\bibcite{Arbelaez2010}{{1}{2010}{{Arbeláez et~al.}}{{Arbeláez, Maire, Fowlkes, and Malik}}}
\bibcite{Clark2014}{{2}{2014}{{Clark et~al.}}{{Clark, Peek, and Putman}}}
\bibcite{Mertens2014}{{3}{2014}{{Mertens and Lobanov}}{{}}}
