%!PS-Adobe-2.0 EPSF-1.2
%%Creator: MATLAB, The MathWorks, Inc. Version 8.3.0.532 (R2014a). Operating System: Linux 3.13.0-39-generic #66-Ubuntu SMP Tue Oct 28 13:30:27 UTC 2014 x86_64.
%%Title: ../report/figures/analysis6b.eps
%%CreationDate: 11/13/2014  00:25:52
%%DocumentNeededFonts: Helvetica
%%DocumentProcessColors: Cyan Magenta Yellow Black
%%Extensions: CMYK
%%Pages: 1
%%BoundingBox:    65   212   546   591
%%EndComments

%%BeginProlog
% MathWorks dictionary
/MathWorks 160 dict begin
% definition operators
/bdef {bind def} bind def
/ldef {load def} bind def
/xdef {exch def} bdef
/xstore {exch store} bdef
% operator abbreviations
/c  /clip ldef
/cc /concat ldef
/cp /closepath ldef
/gr /grestore ldef
/gs /gsave ldef
/mt /moveto ldef
/np /newpath ldef
/cm /currentmatrix ldef
/sm /setmatrix ldef
/rm /rmoveto ldef
/rl /rlineto ldef
/s {show newpath} bdef
/sc {setcmykcolor} bdef
/sr /setrgbcolor ldef
/sg /setgray ldef
/w /setlinewidth ldef
/j /setlinejoin ldef
/cap /setlinecap ldef
/rc {rectclip} bdef
/rf {rectfill} bdef
% page state control
/pgsv () def
/bpage {/pgsv save def} bdef
/epage {pgsv restore} bdef
/bplot /gsave ldef
/eplot {stroke grestore} bdef
% orientation switch
/portraitMode 0 def /landscapeMode 1 def /rotateMode 2 def
% coordinate system mappings
/dpi2point 0 def
% font control
/FontSize 0 def
/FMS {/FontSize xstore findfont [FontSize 0 0 FontSize neg 0 0]
  makefont setfont} bdef
/reencode {exch dup where {pop load} {pop StandardEncoding} ifelse
  exch dup 3 1 roll findfont dup length dict begin
  { 1 index /FID ne {def}{pop pop} ifelse } forall
  /Encoding exch def currentdict end definefont pop} bdef
/isroman {findfont /CharStrings get /Agrave known} bdef
/FMSR {3 1 roll 1 index dup isroman {reencode} {pop pop} ifelse
  exch FMS} bdef
/csm {1 dpi2point div -1 dpi2point div scale neg translate
 dup landscapeMode eq {pop -90 rotate}
  {rotateMode eq {90 rotate} if} ifelse} bdef
% line types: solid, dotted, dashed, dotdash
/SO { [] 0 setdash } bdef
/DO { [.5 dpi2point mul 4 dpi2point mul] 0 setdash } bdef
/DA { [6 dpi2point mul] 0 setdash } bdef
/DD { [.5 dpi2point mul 4 dpi2point mul 6 dpi2point mul 4
  dpi2point mul] 0 setdash } bdef
% macros for lines and objects
/L {lineto stroke} bdef
/MP {3 1 roll moveto 1 sub {rlineto} repeat} bdef
/AP {{rlineto} repeat} bdef
/PDlw -1 def
/W {/PDlw currentlinewidth def setlinewidth} def
/PP {closepath eofill} bdef
/DP {closepath stroke} bdef
/MR {4 -2 roll moveto dup  0 exch rlineto exch 0 rlineto
  neg 0 exch rlineto closepath} bdef
/FR {MR stroke} bdef
/PR {MR fill} bdef
/L1i {{currentfile picstr readhexstring pop} image} bdef
/tMatrix matrix def
/MakeOval {newpath tMatrix currentmatrix pop translate scale
0 0 1 0 360 arc tMatrix setmatrix} bdef
/FO {MakeOval stroke} bdef
/PO {MakeOval fill} bdef
/PD {currentlinewidth 2 div 0 360 arc fill
   PDlw -1 eq not {PDlw w /PDlw -1 def} if} def
/FA {newpath tMatrix currentmatrix pop translate scale
  0 0 1 5 -2 roll arc tMatrix setmatrix stroke} bdef
/PA {newpath tMatrix currentmatrix pop	translate 0 0 moveto scale
  0 0 1 5 -2 roll arc closepath tMatrix setmatrix fill} bdef
/FAn {newpath tMatrix currentmatrix pop translate scale
  0 0 1 5 -2 roll arcn tMatrix setmatrix stroke} bdef
/PAn {newpath tMatrix currentmatrix pop translate 0 0 moveto scale
  0 0 1 5 -2 roll arcn closepath tMatrix setmatrix fill} bdef
/vradius 0 def /hradius 0 def /lry 0 def
/lrx 0 def /uly 0 def /ulx 0 def /rad 0 def
/MRR {/vradius xdef /hradius xdef /lry xdef /lrx xdef /uly xdef
  /ulx xdef newpath tMatrix currentmatrix pop ulx hradius add uly
  vradius add translate hradius vradius scale 0 0 1 180 270 arc 
  tMatrix setmatrix lrx hradius sub uly vradius add translate
  hradius vradius scale 0 0 1 270 360 arc tMatrix setmatrix
  lrx hradius sub lry vradius sub translate hradius vradius scale
  0 0 1 0 90 arc tMatrix setmatrix ulx hradius add lry vradius sub
  translate hradius vradius scale 0 0 1 90 180 arc tMatrix setmatrix
  closepath} bdef
/FRR {MRR stroke } bdef
/PRR {MRR fill } bdef
/MlrRR {/lry xdef /lrx xdef /uly xdef /ulx xdef /rad lry uly sub 2 div def
  newpath tMatrix currentmatrix pop ulx rad add uly rad add translate
  rad rad scale 0 0 1 90 270 arc tMatrix setmatrix lrx rad sub lry rad
  sub translate rad rad scale 0 0 1 270 90 arc tMatrix setmatrix
  closepath} bdef
/FlrRR {MlrRR stroke } bdef
/PlrRR {MlrRR fill } bdef
/MtbRR {/lry xdef /lrx xdef /uly xdef /ulx xdef /rad lrx ulx sub 2 div def
  newpath tMatrix currentmatrix pop ulx rad add uly rad add translate
  rad rad scale 0 0 1 180 360 arc tMatrix setmatrix lrx rad sub lry rad
  sub translate rad rad scale 0 0 1 0 180 arc tMatrix setmatrix
  closepath} bdef
/FtbRR {MtbRR stroke } bdef
/PtbRR {MtbRR fill } bdef
/stri 6 array def /dtri 6 array def
/smat 6 array def /dmat 6 array def
/tmat1 6 array def /tmat2 6 array def /dif 3 array def
/asub {/ind2 exch def /ind1 exch def dup dup
  ind1 get exch ind2 get sub exch } bdef
/tri_to_matrix {
  2 0 asub 3 1 asub 4 0 asub 5 1 asub
  dup 0 get exch 1 get 7 -1 roll astore } bdef
/compute_transform {
  dmat dtri tri_to_matrix tmat1 invertmatrix 
  smat stri tri_to_matrix tmat2 concatmatrix } bdef
/ds {stri astore pop} bdef
/dt {dtri astore pop} bdef
/db {2 copy /cols xdef /rows xdef mul dup 3 mul string
  currentfile exch readhexstring pop
  dup 0 3 index getinterval /rbmap xdef
  dup 2 index dup getinterval /gbmap xdef
  1 index dup 2 mul exch getinterval /bbmap xdef pop pop}bdef
/it {gs np dtri aload pop moveto lineto lineto cp c
  cols rows 8 compute_transform 
  rbmap gbmap bbmap true 3 colorimage gr}bdef
/il {newpath moveto lineto stroke}bdef
currentdict end def
%%EndProlog

%%BeginSetup
MathWorks begin

0 cap

end
%%EndSetup

%%Page: 1 1
%%BeginPageSetup
%%PageBoundingBox:    65   212   546   591
MathWorks begin
bpage
%%EndPageSetup

%%BeginObject: obj1
bplot

/dpi2point 12 def
portraitMode 0216 7344 csm

  574   246  5771  4552 MR c np
86 dict begin %Colortable dictionary
/c0 { 0.000000 0.000000 0.000000 sr} bdef
/c1 { 1.000000 1.000000 1.000000 sr} bdef
/c2 { 0.900000 0.000000 0.000000 sr} bdef
/c3 { 0.000000 0.820000 0.000000 sr} bdef
/c4 { 0.000000 0.000000 0.800000 sr} bdef
/c5 { 0.910000 0.820000 0.320000 sr} bdef
/c6 { 1.000000 0.260000 0.820000 sr} bdef
/c7 { 0.000000 0.820000 0.820000 sr} bdef
c0
1 j
1 sg
   0    0 6913 5186 PR
6 w
0 4226 5356 0 0 -4226 899 4615 4 MP
PP
-5356 0 0 4226 5356 0 0 -4226 899 4615 5 MP stroke
4 w
DO
SO
6 w
0 sg
 899 4615 mt 6255 4615 L
 899  389 mt 6255  389 L
 899 4615 mt  899  389 L
6255 4615 mt 6255  389 L
 899 4615 mt 6255 4615 L
 899 4615 mt  899  389 L
2238 4615 mt 2238 4588 L
2238  389 mt 2238  415 L
2115 4615 mt 2115 4588 L
2115  389 mt 2115  415 L
1978 4615 mt 1978 4588 L
1978  389 mt 1978  415 L
1823 4615 mt 1823 4588 L
1823  389 mt 1823  415 L
1643 4615 mt 1643 4588 L
1643  389 mt 1643  415 L
1431 4615 mt 1431 4588 L
1431  389 mt 1431  415 L
1172 4615 mt 1172 4588 L
1172  389 mt 1172  415 L
2238 4615 mt 2238 4561 L
2238  389 mt 2238  442 L
%%IncludeResource: font Helvetica
/Helvetica /ISOLatin1Encoding 120 FMSR

2126 4797 mt 
(10) s
%%IncludeResource: font Helvetica
/Helvetica /ISOLatin1Encoding 80 FMSR

2259 4723 mt 
(-2) s
3044 4615 mt 3044 4588 L
3044  389 mt 3044  415 L
3515 4615 mt 3515 4588 L
3515  389 mt 3515  415 L
3850 4615 mt 3850 4588 L
3850  389 mt 3850  415 L
4109 4615 mt 4109 4588 L
4109  389 mt 4109  415 L
4321 4615 mt 4321 4588 L
4321  389 mt 4321  415 L
4501 4615 mt 4501 4588 L
4501  389 mt 4501  415 L
4656 4615 mt 4656 4588 L
4656  389 mt 4656  415 L
4793 4615 mt 4793 4588 L
4793  389 mt 4793  415 L
4916 4615 mt 4916 4588 L
4916  389 mt 4916  415 L
4916 4615 mt 4916 4561 L
4916  389 mt 4916  442 L
%%IncludeResource: font Helvetica
/Helvetica /ISOLatin1Encoding 120 FMSR

4804 4797 mt 
(10) s
%%IncludeResource: font Helvetica
/Helvetica /ISOLatin1Encoding 80 FMSR

4937 4723 mt 
(-1) s
5722 4615 mt 5722 4588 L
5722  389 mt 5722  415 L
6193 4615 mt 6193 4588 L
6193  389 mt 6193  415 L
 899 4615 mt  899 4615 L
 899 4615 mt  899 4615 L
 899 4615 mt  899 4615 L
 899 4615 mt  899 4615 L
 899 4615 mt  899 4615 L
 899 4615 mt  899 4615 L
 899 4615 mt  899 4615 L
 899 4615 mt  899 4615 L
 899 4615 mt  899 4615 L
 899 4615 mt  899 4615 L
 899 4615 mt  899 4615 L
 899 4615 mt  899 4615 L
 899 4615 mt  899 4615 L
 899 4615 mt  899 4615 L
 899 4615 mt  899 4615 L
 899 4615 mt  899 4615 L
 899 4615 mt  899 4615 L
 899 4615 mt  899 4615 L
 899 4615 mt  952 4615 L
6255 4615 mt 6201 4615 L
%%IncludeResource: font Helvetica
/Helvetica /ISOLatin1Encoding 120 FMSR

 574 4659 mt 
(10) s
%%IncludeResource: font Helvetica
/Helvetica /ISOLatin1Encoding 80 FMSR

 707 4585 mt 
(-0.1) s
 899 4615 mt  899 4615 L
 899 4615 mt  899 4615 L
 899 4615 mt  899 4615 L
 899 4615 mt  899 4615 L
 899 4615 mt  899 4615 L
 899 4615 mt  899 4615 L
 899 4615 mt  899 4615 L
 899 4615 mt  899 4615 L
 899 4615 mt  899 4615 L
 899 4615 mt  899 4615 L
 899 4615 mt  899 4615 L
 899 4615 mt  899 4615 L
 899 4615 mt  899 4615 L
 899 4615 mt  899 4615 L
 899 4615 mt  899 4615 L
 899 4615 mt  899 4615 L
 899 4615 mt  899 4615 L
 899 4615 mt  899 4615 L
 899 3558 mt  952 3558 L
6255 3558 mt 6201 3558 L
%%IncludeResource: font Helvetica
/Helvetica /ISOLatin1Encoding 120 FMSR

 640 3602 mt 
(10) s
%%IncludeResource: font Helvetica
/Helvetica /ISOLatin1Encoding 80 FMSR

 773 3528 mt 
(0) s
 899 4615 mt  899 4615 L
 899 4615 mt  899 4615 L
 899 4615 mt  899 4615 L
 899 4615 mt  899 4615 L
 899 4615 mt  899 4615 L
 899 4615 mt  899 4615 L
 899 4615 mt  899 4615 L
 899 4615 mt  899 4615 L
 899 4615 mt  899 4615 L
 899 4615 mt  899 4615 L
 899 4615 mt  899 4615 L
 899 4615 mt  899 4615 L
 899 4615 mt  899 4615 L
 899 4615 mt  899 4615 L
 899 4615 mt  899 4615 L
 899 4615 mt  899 4615 L
 899 4615 mt  899 4615 L
 899 4615 mt  899 4615 L
 899 2501 mt  952 2501 L
6255 2501 mt 6201 2501 L
%%IncludeResource: font Helvetica
/Helvetica /ISOLatin1Encoding 120 FMSR

 620 2545 mt 
(10) s
%%IncludeResource: font Helvetica
/Helvetica /ISOLatin1Encoding 80 FMSR

 753 2471 mt 
(0.1) s
 899 4615 mt  899 4615 L
 899 4615 mt  899 4615 L
 899 4615 mt  899 4615 L
 899 4615 mt  899 4615 L
 899 4615 mt  899 4615 L
 899 4615 mt  899 4615 L
 899 4615 mt  899 4615 L
 899 4615 mt  899 4615 L
 899 4615 mt  899 4615 L
 899 4615 mt  899 4615 L
 899 4615 mt  899 4615 L
 899 4615 mt  899 4615 L
 899 4615 mt  899 4615 L
 899 4615 mt  899 4615 L
 899 4615 mt  899 4615 L
 899 4615 mt  899 4615 L
 899 4615 mt  899 4615 L
 899 4615 mt  899 4615 L
 899 1445 mt  952 1445 L
6255 1445 mt 6201 1445 L
%%IncludeResource: font Helvetica
/Helvetica /ISOLatin1Encoding 120 FMSR

 620 1489 mt 
(10) s
%%IncludeResource: font Helvetica
/Helvetica /ISOLatin1Encoding 80 FMSR

 753 1415 mt 
(0.2) s
 899 4615 mt  899 4615 L
 899 4615 mt  899 4615 L
 899 4615 mt  899 4615 L
 899 4615 mt  899 4615 L
 899 4615 mt  899 4615 L
 899 4615 mt  899 4615 L
 899 4615 mt  899 4615 L
 899 4615 mt  899 4615 L
 899 4615 mt  899 4615 L
 899 4615 mt  899 4615 L
 899 4615 mt  899 4615 L
 899 4615 mt  899 4615 L
 899 4615 mt  899 4615 L
 899 4615 mt  899 4615 L
 899 4615 mt  899 4615 L
 899 4615 mt  899 4615 L
 899 4615 mt  899 4615 L
 899 4615 mt  899 4615 L
 899 4615 mt 6255 4615 L
 899  389 mt 6255  389 L
 899 4615 mt  899  389 L
6255 4615 mt 6255  389 L
gs 899 388 5357 4228 MR c np
24 w
gr

24 w
/c8 { 0.000000 1.000000 0.000000 sr} bdef
c8
  36   36 5175 2648 FO
  36   36 4369 2571 FO
  36   36 3563 2143 FO
  36   36 2757 1947 FO
  36   36 1950 1552 FO
gs 899 388 5357 4228 MR c np
gr

/c9 { 1.000000 0.000000 0.000000 sr} bdef
c9
  36   36 5175 2523 FO
  36   36 4369 2377 FO
  36   36 3563 2252 FO
  36   36 2757 2138 FO
  36   36 1950 1774 FO
gs 899 388 5357 4228 MR c np
gr

/c10 { 0.000000 0.000000 1.000000 sr} bdef
c10
  36   36 5175 2629 FO
  36   36 4369 2357 FO
  36   36 3563 1852 FO
  36   36 2757 1419 FO
  36   36 1950  794 FO
gs 899 388 5357 4228 MR c np
0 sg
0 387 5175 3376 2 MP stroke
-50 0 5200 3376 2 MP stroke
-50 0 5200 3763 2 MP stroke
0 246 4369 3428 2 MP stroke
-50 0 4394 3428 2 MP stroke
-50 0 4394 3674 2 MP stroke
0 219 3563 3435 2 MP stroke
-50 0 3588 3435 2 MP stroke
-50 0 3588 3654 2 MP stroke
0 186 2757 3457 2 MP stroke
-49 0 2781 3457 2 MP stroke
-49 0 2781 3643 2 MP stroke
0 421 1950 3378 2 MP stroke
-50 0 1975 3378 2 MP stroke
-50 0 1975 3799 2 MP stroke
gr

0 sg
0 j
0 -58 -58 0 0 58 58 0 5146 3536 5 MP
DP
0 -58 -58 0 0 58 58 0 4340 3520 5 MP
DP
0 -58 -58 0 0 58 58 0 3534 3514 5 MP
DP
0 -58 -58 0 0 58 58 0 2728 3520 5 MP
DP
0 -58 -58 0 0 58 58 0 1921 3555 5 MP
DP
gs 899 388 5357 4228 MR c np
gr

%%IncludeResource: font Helvetica
/Helvetica /ISOLatin1Encoding 120 FMSR

 882 4658 mt 
( ) s
6239  430 mt 
( ) s
6 w
1 sg
0 626 1046 0 0 -626 5149 1074 4 MP
PP
-1046 0 0 626 1046 0 0 -626 5149 1074 5 MP stroke
4 w
DO
SO
6 w
0 sg
5149 1074 mt 6195 1074 L
5149  448 mt 6195  448 L
5149 1074 mt 5149  448 L
6195 1074 mt 6195  448 L
5149 1074 mt 6195 1074 L
5149 1074 mt 5149  448 L
5149 1074 mt 6195 1074 L
5149  448 mt 6195  448 L
5149 1074 mt 5149  448 L
6195 1074 mt 6195  448 L
5619  584 mt 
(channel A) s
gs 5149 448 1047 627 MR c np
24 w
gr

24 w
gs 5304 443 197 197 MR c np
c8
  36   36 5402  541 FO
gr

c8
gs 5149 448 1047 627 MR c np
gr

0 sg
5619  730 mt 
(channel B) s
gs 5149 448 1047 627 MR c np
gs 5304 589 197 197 MR c np
c9
  36   36 5402  687 FO
gr

c9
gr

c9
0 sg
5619  877 mt 
(channel C) s
gs 5149 448 1047 627 MR c np
gs 5304 736 197 197 MR c np
c10
  36   36 5402  834 FO
gr

c10
gr

c10
0 sg
5619 1023 mt 
(random) s
gs 5149 448 1047 627 MR c np
6 w
gs 5329 907 147 147 MR c np
0 -58 -58 0 0 58 58 0 5373 951 5 MP
DP
gr

gr

6 w

end %%Color Dict

eplot
%%EndObject

epage
end

showpage

%%Trailer
%%EOF
